%YAML 1.1
%TAG !u! tag:unity3d.com,2011:
--- !u!162 &1
EditorUserSettings:
  m_ObjectHideFlags: 0
  serializedVersion: 4
  m_ConfigSettings:
    RecentlyUsedScenePath-0:
      value: 22424703114646680e0b0227036c6c111b07142f1f2b233e2867083debf42d
      flags: 0
    RecentlyUsedScenePath-1:
      value: 22424703114646680e0b0227036c7d151e160e23233a66043f2c1873cce52378cdeb32a7f234362820
      flags: 0
    RecentlyUsedScenePath-2:
      value: 2242470311464679391c09275e365119020e
      flags: 0
    RecentlyUsedScenePath-3:
      value: 22424703114646680e0b0227036c7d151e160e23233a66043f2c1873cdec3078b3a923e7ee2e26
      flags: 0
    RecentlyUsedScenePath-4:
      value: 22424703114646680e0b0227036c7d151e160e23233d3470193b1836a2d73b2ae9ee38eea92f31352d1b
      flags: 0
    vcSharedLogLevel:
      value: 0d5e400f0650
      flags: 0
  m_VCAutomaticAdd: 1
  m_VCDebugCom: 0
  m_VCDebugCmd: 0
  m_VCDebugOut: 0
  m_SemanticMergeMode: 2
  m_VCShowFailedCheckout: 1
  m_VCOverwriteFailedCheckoutAssets: 1
  m_VCProjectOverlayIcons: 1
  m_VCHierarchyOverlayIcons: 1
  m_VCOtherOverlayIcons: 1
  m_VCAllowAsyncUpdate: 1
